[
  {
    "title": "noderel",
    "slug": "noderel",
    "tags": "nodejs,nodemon,monitor,hot reload",
    "description": "A tool that automatically restarting the node application when file changes (Nodemon alternative)",
    "thumbnail": null,
    "links": [
      {
        "name": "website",
        "href": "https://wutility.github.io/noderel",
        "icon": "fa fa-globe"
      },
      {
        "name": "repository",
        "href": "https://github.com/wutility/noderel",
        "icon": "fab fa-github"
      }
    ],
    "images": [
      "https://i.ibb.co/H2qqp98/Screenshot-2022-11-03-03-08-44.png"
    ],
    "dev_tools": [
      "nodejs","chokidar","minimist","tree-kill"
    ]
  },
  {
    "title": "Dard",
    "slug": "dard",
    "tags": "programming language",
    "description": "Dard is french educational programming language, it is designed as an instrument for learning.",
    "thumbnail": null,
    "links": [
      {
        "name": "website",
        "href": null,
        "icon": "fa fa-globe"
      },
      {
        "name": "repository",
        "href": "https://github.com/haikelfazzani/dard",
        "icon": "fab fa-github"
      }
    ],
    "images": [],
    "dev_tools": [
      "c",
      "c++",
      "makefile"
    ]
  },
  {
    "title": "jsr",
    "slug": "jsr",
    "tags": "javascript runtime",
    "description": "Javascript runtime build with V8 and Libuv (similar to Nodejs), Just for learning.",
    "thumbnail": null,
    "links": [
      {
        "name": "website",
        "href": null,
        "icon": "fa fa-globe"
      },
      {
        "name": "repository",
        "href": "https://github.com/haikelfazzani/jsr",
        "icon": "fab fa-github"
      }
    ],
    "images": [],
    "dev_tools": [
      "javascript",
      "c++",
      "v8",
      "libuv"
    ]
  }
]